PATH=/usr/local/bin:/usr/bin:/bin
12 15 * * * jsub -quiet -once -mem 4g /data/project/wikidata-game/tools/update_database.sh
20 0,2,4,6 * * * cd /data/project/wikidata-game/tools/ ; jsub -mem 2g -cwd -quiet -once ./add_image_candidates.php
20 8,10,12,14,16,18,20,22,2,4,6 * * * cd /data/project/wikidata-game/tools/ ; jsub -mem 2g -cwd -quiet -once ./update_occupation.php
